{
  "project_info": {
    "project_number": "248524978188",
    "project_id": "authentification-f47d0",
    "storage_bucket": "authentification-f47d0.appspot.com"
  },
  "client": [
    {
      "client_info": {
        "mobilesdk_app_id": "1:248524978188:android:35c1cd903f7f4fcf131629",
        "android_client_info": {
          "package_name": "com.example.authentication"
        }
      },
      "oauth_client": [
        {
          "client_id": "248524978188-gcsd5cec5u4mkv4rinqvn5ko4o03joqc.apps.googleusercontent.com",
          "client_type": 3
        }
      ],
      "api_key": [
        {
          "current_key": "AIzaSyBxFdeMfIxpZtka5f11pW2Q3O0rT8sD4L4"
        }
      ],
      "services": {
        "appinvite_service": {
          "other_platform_oauth_client": [
            {
              "client_id": "248524978188-gcsd5cec5u4mkv4rinqvn5ko4o03joqc.apps.googleusercontent.com",
              "client_type": 3
            }
          ]
        }
      }
    }
  ],
  "configuration_version": "1"
}